<?xml version="1.0" encoding="utf-8" standalone="no"?>
<!DOCTYPE svg PUBLIC "-//W3C//DTD SVG 1.1//EN"
  "http://www.w3.org/Graphics/SVG/1.1/DTD/svg11.dtd">
<!-- Created with matplotlib (https://matplotlib.org/) -->
<svg height="345.6pt" version="1.1" viewBox="0 0 460.8 345.6" width="460.8pt" xmlns="http://www.w3.org/2000/svg" xmlns:xlink="http://www.w3.org/1999/xlink">
 <defs>
  <style type="text/css">
*{stroke-linecap:butt;stroke-linejoin:round;}
  </style>
 </defs>
 <g id="figure_1">
  <g id="patch_1">
   <path d="M 0 345.6
L 460.8 345.6
L 460.8 0
L 0 0
z
" style="fill:#ffffff;"/>
  </g>
  <g id="axes_1">
   <g id="patch_2">
    <path d="M 57.6 307.584
L 414.72 307.584
L 414.72 41.472
L 57.6 41.472
z
" style="fill:#ffffff;"/>
   </g>
   <g id="matplotlib.axis_1">
    <g id="xtick_1">
     <g id="line2d_1">
      <defs>
       <path d="M 0 0
L 0 3.5
" id="m5d1316720a" style="stroke:#000000;stroke-width:0.8;"/>
      </defs>
      <g>
       <use style="stroke:#000000;stroke-width:0.8;" x="98.941349" xlink:href="#m5d1316720a" y="307.584"/>
      </g>
     </g>
     <g id="text_1">
      <!-- 500 -->
      <defs>
       <path d="M 10.796875 72.90625
L 49.515625 72.90625
L 49.515625 64.59375
L 19.828125 64.59375
L 19.828125 46.734375
Q 21.96875 47.46875 24.109375 47.828125
Q 26.265625 48.1875 28.421875 48.1875
Q 40.625 48.1875 47.75 41.5
Q 54.890625 34.8125 54.890625 23.390625
Q 54.890625 11.625 47.5625 5.09375
Q 40.234375 -1.421875 26.90625 -1.421875
Q 22.3125 -1.421875 17.546875 -0.640625
Q 12.796875 0.140625 7.71875 1.703125
L 7.71875 11.625
Q 12.109375 9.234375 16.796875 8.0625
Q 21.484375 6.890625 26.703125 6.890625
Q 35.15625 6.890625 40.078125 11.328125
Q 45.015625 15.765625 45.015625 23.390625
Q 45.015625 31 40.078125 35.4375
Q 35.15625 39.890625 26.703125 39.890625
Q 22.75 39.890625 18.8125 39.015625
Q 14.890625 38.140625 10.796875 36.28125
z
" id="DejaVuSans-53"/>
       <path d="M 31.78125 66.40625
Q 24.171875 66.40625 20.328125 58.90625
Q 16.5 51.421875 16.5 36.375
Q 16.5 21.390625 20.328125 13.890625
Q 24.171875 6.390625 31.78125 6.390625
Q 39.453125 6.390625 43.28125 13.890625
Q 47.125 21.390625 47.125 36.375
Q 47.125 51.421875 43.28125 58.90625
Q 39.453125 66.40625 31.78125 66.40625
z
M 31.78125 74.21875
Q 44.046875 74.21875 50.515625 64.515625
Q 56.984375 54.828125 56.984375 36.375
Q 56.984375 17.96875 50.515625 8.265625
Q 44.046875 -1.421875 31.78125 -1.421875
Q 19.53125 -1.421875 13.0625 8.265625
Q 6.59375 17.96875 6.59375 36.375
Q 6.59375 54.828125 13.0625 64.515625
Q 19.53125 74.21875 31.78125 74.21875
z
" id="DejaVuSans-48"/>
      </defs>
      <g transform="translate(89.397599 322.182437)scale(0.1 -0.1)">
       <use xlink:href="#DejaVuSans-53"/>
       <use x="63.623047" xlink:href="#DejaVuSans-48"/>
       <use x="127.246094" xlink:href="#DejaVuSans-48"/>
      </g>
     </g>
    </g>
    <g id="xtick_2">
     <g id="line2d_2">
      <g>
       <use style="stroke:#000000;stroke-width:0.8;" x="145.567628" xlink:href="#m5d1316720a" y="307.584"/>
      </g>
     </g>
     <g id="text_2">
      <!-- 1000 -->
      <defs>
       <path d="M 12.40625 8.296875
L 28.515625 8.296875
L 28.515625 63.921875
L 10.984375 60.40625
L 10.984375 69.390625
L 28.421875 72.90625
L 38.28125 72.90625
L 38.28125 8.296875
L 54.390625 8.296875
L 54.390625 0
L 12.40625 0
z
" id="DejaVuSans-49"/>
      </defs>
      <g transform="translate(132.842628 322.182437)scale(0.1 -0.1)">
       <use xlink:href="#DejaVuSans-49"/>
       <use x="63.623047" xlink:href="#DejaVuSans-48"/>
       <use x="127.246094" xlink:href="#DejaVuSans-48"/>
       <use x="190.869141" xlink:href="#DejaVuSans-48"/>
      </g>
     </g>
    </g>
    <g id="xtick_3">
     <g id="line2d_3">
      <g>
       <use style="stroke:#000000;stroke-width:0.8;" x="192.193908" xlink:href="#m5d1316720a" y="307.584"/>
      </g>
     </g>
     <g id="text_3">
      <!-- 1500 -->
      <g transform="translate(179.468908 322.182437)scale(0.1 -0.1)">
       <use xlink:href="#DejaVuSans-49"/>
       <use x="63.623047" xlink:href="#DejaVuSans-53"/>
       <use x="127.246094" xlink:href="#DejaVuSans-48"/>
       <use x="190.869141" xlink:href="#DejaVuSans-48"/>
      </g>
     </g>
    </g>
    <g id="xtick_4">
     <g id="line2d_4">
      <g>
       <use style="stroke:#000000;stroke-width:0.8;" x="238.820187" xlink:href="#m5d1316720a" y="307.584"/>
      </g>
     </g>
     <g id="text_4">
      <!-- 2000 -->
      <defs>
       <path d="M 19.1875 8.296875
L 53.609375 8.296875
L 53.609375 0
L 7.328125 0
L 7.328125 8.296875
Q 12.9375 14.109375 22.625 23.890625
Q 32.328125 33.6875 34.8125 36.53125
Q 39.546875 41.84375 41.421875 45.53125
Q 43.3125 49.21875 43.3125 52.78125
Q 43.3125 58.59375 39.234375 62.25
Q 35.15625 65.921875 28.609375 65.921875
Q 23.96875 65.921875 18.8125 64.3125
Q 13.671875 62.703125 7.8125 59.421875
L 7.8125 69.390625
Q 13.765625 71.78125 18.9375 73
Q 24.125 74.21875 28.421875 74.21875
Q 39.75 74.21875 46.484375 68.546875
Q 53.21875 62.890625 53.21875 53.421875
Q 53.21875 48.921875 51.53125 44.890625
Q 49.859375 40.875 45.40625 35.40625
Q 44.1875 33.984375 37.640625 27.21875
Q 31.109375 20.453125 19.1875 8.296875
z
" id="DejaVuSans-50"/>
      </defs>
      <g transform="translate(226.095187 322.182437)scale(0.1 -0.1)">
       <use xlink:href="#DejaVuSans-50"/>
       <use x="63.623047" xlink:href="#DejaVuSans-48"/>
       <use x="127.246094" xlink:href="#DejaVuSans-48"/>
       <use x="190.869141" xlink:href="#DejaVuSans-48"/>
      </g>
     </g>
    </g>
    <g id="xtick_5">
     <g id="line2d_5">
      <g>
       <use style="stroke:#000000;stroke-width:0.8;" x="285.446467" xlink:href="#m5d1316720a" y="307.584"/>
      </g>
     </g>
     <g id="text_5">
      <!-- 2500 -->
      <g transform="translate(272.721467 322.182437)scale(0.1 -0.1)">
       <use xlink:href="#DejaVuSans-50"/>
       <use x="63.623047" xlink:href="#DejaVuSans-53"/>
       <use x="127.246094" xlink:href="#DejaVuSans-48"/>
       <use x="190.869141" xlink:href="#DejaVuSans-48"/>
      </g>
     </g>
    </g>
    <g id="xtick_6">
     <g id="line2d_6">
      <g>
       <use style="stroke:#000000;stroke-width:0.8;" x="332.072746" xlink:href="#m5d1316720a" y="307.584"/>
      </g>
     </g>
     <g id="text_6">
      <!-- 3000 -->
      <defs>
       <path d="M 40.578125 39.3125
Q 47.65625 37.796875 51.625 33
Q 55.609375 28.21875 55.609375 21.1875
Q 55.609375 10.40625 48.1875 4.484375
Q 40.765625 -1.421875 27.09375 -1.421875
Q 22.515625 -1.421875 17.65625 -0.515625
Q 12.796875 0.390625 7.625 2.203125
L 7.625 11.71875
Q 11.71875 9.328125 16.59375 8.109375
Q 21.484375 6.890625 26.8125 6.890625
Q 36.078125 6.890625 40.9375 10.546875
Q 45.796875 14.203125 45.796875 21.1875
Q 45.796875 27.640625 41.28125 31.265625
Q 36.765625 34.90625 28.71875 34.90625
L 20.21875 34.90625
L 20.21875 43.015625
L 29.109375 43.015625
Q 36.375 43.015625 40.234375 45.921875
Q 44.09375 48.828125 44.09375 54.296875
Q 44.09375 59.90625 40.109375 62.90625
Q 36.140625 65.921875 28.71875 65.921875
Q 24.65625 65.921875 20.015625 65.03125
Q 15.375 64.15625 9.8125 62.3125
L 9.8125 71.09375
Q 15.4375 72.65625 20.34375 73.4375
Q 25.25 74.21875 29.59375 74.21875
Q 40.828125 74.21875 47.359375 69.109375
Q 53.90625 64.015625 53.90625 55.328125
Q 53.90625 49.265625 50.4375 45.09375
Q 46.96875 40.921875 40.578125 39.3125
z
" id="DejaVuSans-51"/>
      </defs>
      <g transform="translate(319.347746 322.182437)scale(0.1 -0.1)">
       <use xlink:href="#DejaVuSans-51"/>
       <use x="63.623047" xlink:href="#DejaVuSans-48"/>
       <use x="127.246094" xlink:href="#DejaVuSans-48"/>
       <use x="190.869141" xlink:href="#DejaVuSans-48"/>
      </g>
     </g>
    </g>
    <g id="xtick_7">
     <g id="line2d_7">
      <g>
       <use style="stroke:#000000;stroke-width:0.8;" x="378.699026" xlink:href="#m5d1316720a" y="307.584"/>
      </g>
     </g>
     <g id="text_7">
      <!-- 3500 -->
      <g transform="translate(365.974026 322.182437)scale(0.1 -0.1)">
       <use xlink:href="#DejaVuSans-51"/>
       <use x="63.623047" xlink:href="#DejaVuSans-53"/>
       <use x="127.246094" xlink:href="#DejaVuSans-48"/>
       <use x="190.869141" xlink:href="#DejaVuSans-48"/>
      </g>
     </g>
    </g>
    <g id="text_8">
     <!-- $\tilde\nu$ / (cm$^{-1}$) -->
     <defs>
      <path d="M -25.328125 66.890625
L -28.109375 69.578125
Q -29.171875 70.5625 -29.984375 71.015625
Q -30.796875 71.484375 -31.421875 71.484375
Q -33.28125 71.484375 -34.15625 69.703125
Q -35.03125 67.921875 -35.140625 63.921875
L -41.234375 63.921875
Q -41.140625 70.515625 -38.640625 74.09375
Q -36.15625 77.6875 -31.71875 77.6875
Q -29.859375 77.6875 -28.296875 77
Q -26.734375 76.3125 -24.9375 74.703125
L -22.140625 72.015625
Q -21.078125 71.046875 -20.265625 70.578125
Q -19.46875 70.125 -18.828125 70.125
Q -16.96875 70.125 -16.09375 71.90625
Q -15.21875 73.6875 -15.109375 77.6875
L -9.015625 77.6875
Q -9.109375 71.09375 -11.59375 67.5
Q -14.09375 63.921875 -18.53125 63.921875
Q -20.390625 63.921875 -21.953125 64.59375
Q -23.515625 65.28125 -25.328125 66.890625
z
" id="DejaVuSans-771"/>
      <path d="M 14.984375 0
L 8.9375 54.6875
L 18.609375 54.6875
L 23.78125 8.796875
Q 30.8125 14.84375 37.359375 23.25
Q 42.28125 29.546875 43.5625 35.015625
Q 44.140625 37.59375 43.890625 42.484375
Q 43.65625 48.296875 39.75 54.6875
L 48.828125 54.6875
L 48.828125 54.6875
Q 51.375 50.34375 52.390625 44.28125
Q 53.375 38.71875 52.640625 34.90625
Q 50.78125 25.34375 42.484375 16.796875
Q 31.640625 5.671875 24.5625 0
z
" id="DejaVuSans-Oblique-957"/>
      <path id="DejaVuSans-32"/>
      <path d="M 25.390625 72.90625
L 33.6875 72.90625
L 8.296875 -9.28125
L 0 -9.28125
z
" id="DejaVuSans-47"/>
      <path d="M 31 75.875
Q 24.46875 64.65625 21.28125 53.65625
Q 18.109375 42.671875 18.109375 31.390625
Q 18.109375 20.125 21.3125 9.0625
Q 24.515625 -2 31 -13.1875
L 23.1875 -13.1875
Q 15.875 -1.703125 12.234375 9.375
Q 8.59375 20.453125 8.59375 31.390625
Q 8.59375 42.28125 12.203125 53.3125
Q 15.828125 64.359375 23.1875 75.875
z
" id="DejaVuSans-40"/>
      <path d="M 48.78125 52.59375
L 48.78125 44.1875
Q 44.96875 46.296875 41.140625 47.34375
Q 37.3125 48.390625 33.40625 48.390625
Q 24.65625 48.390625 19.8125 42.84375
Q 14.984375 37.3125 14.984375 27.296875
Q 14.984375 17.28125 19.8125 11.734375
Q 24.65625 6.203125 33.40625 6.203125
Q 37.3125 6.203125 41.140625 7.25
Q 44.96875 8.296875 48.78125 10.40625
L 48.78125 2.09375
Q 45.015625 0.34375 40.984375 -0.53125
Q 36.96875 -1.421875 32.421875 -1.421875
Q 20.0625 -1.421875 12.78125 6.34375
Q 5.515625 14.109375 5.515625 27.296875
Q 5.515625 40.671875 12.859375 48.328125
Q 20.21875 56 33.015625 56
Q 37.15625 56 41.109375 55.140625
Q 45.0625 54.296875 48.78125 52.59375
z
" id="DejaVuSans-99"/>
      <path d="M 52 44.1875
Q 55.375 50.25 60.0625 53.125
Q 64.75 56 71.09375 56
Q 79.640625 56 84.28125 50.015625
Q 88.921875 44.046875 88.921875 33.015625
L 88.921875 0
L 79.890625 0
L 79.890625 32.71875
Q 79.890625 40.578125 77.09375 44.375
Q 74.3125 48.1875 68.609375 48.1875
Q 61.625 48.1875 57.5625 43.546875
Q 53.515625 38.921875 53.515625 30.90625
L 53.515625 0
L 44.484375 0
L 44.484375 32.71875
Q 44.484375 40.625 41.703125 44.40625
Q 38.921875 48.1875 33.109375 48.1875
Q 26.21875 48.1875 22.15625 43.53125
Q 18.109375 38.875 18.109375 30.90625
L 18.109375 0
L 9.078125 0
L 9.078125 54.6875
L 18.109375 54.6875
L 18.109375 46.1875
Q 21.1875 51.21875 25.484375 53.609375
Q 29.78125 56 35.6875 56
Q 41.65625 56 45.828125 52.96875
Q 50 49.953125 52 44.1875
z
" id="DejaVuSans-109"/>
      <path d="M 10.59375 35.5
L 73.1875 35.5
L 73.1875 27.203125
L 10.59375 27.203125
z
" id="DejaVuSans-8722"/>
      <path d="M 8.015625 75.875
L 15.828125 75.875
Q 23.140625 64.359375 26.78125 53.3125
Q 30.421875 42.28125 30.421875 31.390625
Q 30.421875 20.453125 26.78125 9.375
Q 23.140625 -1.703125 15.828125 -13.1875
L 8.015625 -13.1875
Q 14.5 -2 17.703125 9.0625
Q 20.90625 20.125 20.90625 31.390625
Q 20.90625 42.671875 17.703125 53.65625
Q 14.5 64.65625 8.015625 75.875
z
" id="DejaVuSans-41"/>
     </defs>
     <g transform="translate(211.61 336.582437)scale(0.1 -0.1)">
      <use transform="translate(53.339844 3.95)" xlink:href="#DejaVuSans-771"/>
      <use transform="translate(0 0.684375)" xlink:href="#DejaVuSans-Oblique-957"/>
      <use transform="translate(55.859375 0.684375)" xlink:href="#DejaVuSans-32"/>
      <use transform="translate(87.646484 0.684375)" xlink:href="#DejaVuSans-47"/>
      <use transform="translate(121.337891 0.684375)" xlink:href="#DejaVuSans-32"/>
      <use transform="translate(153.125 0.684375)" xlink:href="#DejaVuSans-40"/>
      <use transform="translate(192.138672 0.684375)" xlink:href="#DejaVuSans-99"/>
      <use transform="translate(247.119141 0.684375)" xlink:href="#DejaVuSans-109"/>
      <use transform="translate(345.488281 38.965625)scale(0.7)" xlink:href="#DejaVuSans-8722"/>
      <use transform="translate(404.140625 38.965625)scale(0.7)" xlink:href="#DejaVuSans-49"/>
      <use transform="translate(451.411133 0.684375)" xlink:href="#DejaVuSans-41"/>
     </g>
    </g>
   </g>
   <g id="matplotlib.axis_2">
    <g id="ytick_1">
     <g id="line2d_8">
      <defs>
       <path d="M 0 0
L -3.5 0
" id="m9636b8a377" style="stroke:#000000;stroke-width:0.8;"/>
      </defs>
      <g>
       <use style="stroke:#000000;stroke-width:0.8;" x="57.6" xlink:href="#m9636b8a377" y="307.584"/>
      </g>
     </g>
     <g id="text_9">
      <!-- 0 -->
      <g transform="translate(44.2375 311.383219)scale(0.1 -0.1)">
       <use xlink:href="#DejaVuSans-48"/>
      </g>
     </g>
    </g>
    <g id="ytick_2">
     <g id="line2d_9">
      <g>
       <use style="stroke:#000000;stroke-width:0.8;" x="57.6" xlink:href="#m9636b8a377" y="249.113809"/>
      </g>
     </g>
     <g id="text_10">
      <!-- 50 -->
      <g transform="translate(37.875 252.913028)scale(0.1 -0.1)">
       <use xlink:href="#DejaVuSans-53"/>
       <use x="63.623047" xlink:href="#DejaVuSans-48"/>
      </g>
     </g>
    </g>
    <g id="ytick_3">
     <g id="line2d_10">
      <g>
       <use style="stroke:#000000;stroke-width:0.8;" x="57.6" xlink:href="#m9636b8a377" y="190.643618"/>
      </g>
     </g>
     <g id="text_11">
      <!-- 100 -->
      <g transform="translate(31.5125 194.442837)scale(0.1 -0.1)">
       <use xlink:href="#DejaVuSans-49"/>
       <use x="63.623047" xlink:href="#DejaVuSans-48"/>
       <use x="127.246094" xlink:href="#DejaVuSans-48"/>
      </g>
     </g>
    </g>
    <g id="ytick_4">
     <g id="line2d_11">
      <g>
       <use style="stroke:#000000;stroke-width:0.8;" x="57.6" xlink:href="#m9636b8a377" y="132.173428"/>
      </g>
     </g>
     <g id="text_12">
      <!-- 150 -->
      <g transform="translate(31.5125 135.972646)scale(0.1 -0.1)">
       <use xlink:href="#DejaVuSans-49"/>
       <use x="63.623047" xlink:href="#DejaVuSans-53"/>
       <use x="127.246094" xlink:href="#DejaVuSans-48"/>
      </g>
     </g>
    </g>
    <g id="ytick_5">
     <g id="line2d_12">
      <g>
       <use style="stroke:#000000;stroke-width:0.8;" x="57.6" xlink:href="#m9636b8a377" y="73.703237"/>
      </g>
     </g>
     <g id="text_13">
      <!-- 200 -->
      <g transform="translate(31.5125 77.502456)scale(0.1 -0.1)">
       <use xlink:href="#DejaVuSans-50"/>
       <use x="63.623047" xlink:href="#DejaVuSans-48"/>
       <use x="127.246094" xlink:href="#DejaVuSans-48"/>
      </g>
     </g>
    </g>
    <g id="text_14">
     <!-- $\epsilon$ / (m$^{2}$ mol$^{-1}$) -->
     <defs>
      <path d="M 19.734375 29.5
Q 14.453125 30.671875 12.15625 33.84375
Q 10.453125 36.078125 10.453125 39.109375
Q 10.453125 47.40625 18.359375 52.25
Q 24.609375 56.0625 34.1875 56.0625
Q 37.890625 56.0625 41.9375 55.46875
Q 46 54.890625 50.53125 53.71875
L 48.96875 45.5625
Q 44.484375 46.96875 40.71875 47.609375
Q 36.859375 48.25 33.40625 48.25
Q 27.59375 48.25 23.78125 46
Q 19.1875 43.3125 19.1875 39.40625
Q 19.1875 36.8125 21.578125 35.015625
Q 24.421875 32.859375 30.078125 32.859375
L 37.640625 32.859375
L 36.234375 25.4375
L 29 25.4375
Q 22.265625 25.4375 18.3125 22.953125
Q 12.9375 19.578125 12.9375 14.3125
Q 12.9375 10.984375 15.828125 8.796875
Q 19.4375 6.0625 26.8125 6.0625
Q 31.34375 6.0625 35.6875 6.9375
Q 40.046875 7.859375 43.84375 9.671875
L 42.1875 1.3125
Q 37.546875 -0.046875 33.296875 -0.734375
Q 29.046875 -1.421875 25.140625 -1.421875
Q 13.53125 -1.421875 8.0625 3.03125
Q 3.90625 6.453125 3.90625 12.203125
Q 3.90625 19.96875 9.375 24.75
Q 13.421875 28.328125 19.734375 29.5
z
" id="DejaVuSans-Oblique-949"/>
      <path d="M 30.609375 48.390625
Q 23.390625 48.390625 19.1875 42.75
Q 14.984375 37.109375 14.984375 27.296875
Q 14.984375 17.484375 19.15625 11.84375
Q 23.34375 6.203125 30.609375 6.203125
Q 37.796875 6.203125 41.984375 11.859375
Q 46.1875 17.53125 46.1875 27.296875
Q 46.1875 37.015625 41.984375 42.703125
Q 37.796875 48.390625 30.609375 48.390625
z
M 30.609375 56
Q 42.328125 56 49.015625 48.375
Q 55.71875 40.765625 55.71875 27.296875
Q 55.71875 13.875 49.015625 6.21875
Q 42.328125 -1.421875 30.609375 -1.421875
Q 18.84375 -1.421875 12.171875 6.21875
Q 5.515625 13.875 5.515625 27.296875
Q 5.515625 40.765625 12.171875 48.375
Q 18.84375 56 30.609375 56
z
" id="DejaVuSans-111"/>
      <path d="M 9.421875 75.984375
L 18.40625 75.984375
L 18.40625 0
L 9.421875 0
z
" id="DejaVuSans-108"/>
     </defs>
     <g transform="translate(25.432812 209.578)rotate(-90)scale(0.1 -0.1)">
      <use transform="translate(0 0.765625)" xlink:href="#DejaVuSans-Oblique-949"/>
      <use transform="translate(54.052734 0.765625)" xlink:href="#DejaVuSans-32"/>
      <use transform="translate(85.839844 0.765625)" xlink:href="#DejaVuSans-47"/>
      <use transform="translate(119.53125 0.765625)" xlink:href="#DejaVuSans-32"/>
      <use transform="translate(151.318359 0.765625)" xlink:href="#DejaVuSans-40"/>
      <use transform="translate(190.332031 0.765625)" xlink:href="#DejaVuSans-109"/>
      <use transform="translate(288.701172 39.046875)scale(0.7)" xlink:href="#DejaVuSans-50"/>
      <use transform="translate(335.97168 0.765625)" xlink:href="#DejaVuSans-32"/>
      <use transform="translate(367.758789 0.765625)" xlink:href="#DejaVuSans-109"/>
      <use transform="translate(465.170898 0.765625)" xlink:href="#DejaVuSans-111"/>
      <use transform="translate(526.352539 0.765625)" xlink:href="#DejaVuSans-108"/>
      <use transform="translate(555.092773 39.046875)scale(0.7)" xlink:href="#DejaVuSans-8722"/>
      <use transform="translate(613.745117 39.046875)scale(0.7)" xlink:href="#DejaVuSans-49"/>
      <use transform="translate(661.015625 0.765625)" xlink:href="#DejaVuSans-41"/>
     </g>
    </g>
   </g>
   <g id="line2d_13">
    <path clip-path="url(#pc9aa176515)" d="M 57.6 307.401661
L 61.143597 307.167473
L 62.850119 306.850231
L 63.875897 306.446845
L 64.584617 305.936873
L 65.134807 305.261553
L 65.591744 304.327974
L 65.983405 302.997605
L 66.337765 300.950461
L 66.654823 297.709427
L 66.943906 292.196358
L 67.195688 282.73897
L 67.419494 265.257152
L 67.62465 229.601938
L 67.829806 147.964406
L 68.044287 54.144
L 68.090913 60.993708
L 68.249442 142.774481
L 68.54785 247.809824
L 68.836933 279.509955
L 69.153992 292.438454
L 69.508352 298.655455
L 69.900013 301.951364
L 70.328974 303.839331
L 70.813888 305.02346
L 71.364078 305.796108
L 72.016846 306.332487
L 72.865444 306.732658
L 74.068402 307.037739
L 75.970754 307.267795
L 79.411774 307.42963
L 87.226338 307.528954
L 114.875722 307.572321
L 157.98638 307.473548
L 161.156967 307.275542
L 162.453177 306.99227
L 163.180547 306.619979
L 163.674786 306.123147
L 164.066447 305.397644
L 164.392831 304.290435
L 164.681914 302.441908
L 164.933695 299.260074
L 165.157502 293.354365
L 165.362657 281.261199
L 165.567813 253.661617
L 165.772968 223.86812
L 165.819595 225.862515
L 165.968799 250.857447
L 166.267207 287.089228
L 166.546965 297.845082
L 166.864023 302.391748
L 167.218383 304.547322
L 167.610044 305.678564
L 168.066981 306.351994
L 168.626497 306.783262
L 169.400493 307.086137
L 170.631427 307.304956
L 172.92544 307.454043
L 178.492618 307.541702
L 201.498024 307.577536
L 392.087604 307.523996
L 398.055768 307.354567
L 399.995421 307.100377
L 400.993223 306.7634
L 401.636666 306.318145
L 402.102929 305.724179
L 402.485264 304.862102
L 402.820973 303.503261
L 403.110056 301.337342
L 403.371164 297.538888
L 403.604295 290.491552
L 403.809451 276.846555
L 404.014606 245.328493
L 404.266388 194.386379
L 404.32234 198.546586
L 404.555471 252.586063
L 404.835229 285.455819
L 405.124312 296.674118
L 405.450696 301.588616
L 405.814381 303.997665
L 406.215367 305.295469
L 406.672304 306.071977
L 407.222494 306.578003
L 407.949864 306.934037
L 409.031594 307.194685
L 410.868669 307.380761
L 414.654723 307.501673
L 414.72 307.502694
L 414.72 307.502694
" style="fill:none;stroke:#0000ff;stroke-linecap:square;stroke-width:1.5;"/>
   </g>
   <g id="patch_3">
    <path d="M 57.6 307.584
L 57.6 41.472
" style="fill:none;stroke:#000000;stroke-linecap:square;stroke-linejoin:miter;stroke-width:0.8;"/>
   </g>
   <g id="patch_4">
    <path d="M 414.72 307.584
L 414.72 41.472
" style="fill:none;stroke:#000000;stroke-linecap:square;stroke-linejoin:miter;stroke-width:0.8;"/>
   </g>
   <g id="patch_5">
    <path d="M 57.6 307.584
L 414.72 307.584
" style="fill:none;stroke:#000000;stroke-linecap:square;stroke-linejoin:miter;stroke-width:0.8;"/>
   </g>
   <g id="patch_6">
    <path d="M 57.6 41.472
L 414.72 41.472
" style="fill:none;stroke:#000000;stroke-linecap:square;stroke-linejoin:miter;stroke-width:0.8;"/>
   </g>
  </g>
  <g id="axes_2">
   <g id="matplotlib.axis_3">
    <g id="ytick_6">
     <g id="line2d_14">
      <defs>
       <path d="M 0 0
L 3.5 0
" id="mad613f968f" style="stroke:#000000;stroke-width:0.8;"/>
      </defs>
      <g>
       <use style="stroke:#000000;stroke-width:0.8;" x="414.72" xlink:href="#mad613f968f" y="307.584"/>
      </g>
     </g>
     <g id="text_15">
      <!-- 0.0 -->
      <defs>
       <path d="M 10.6875 12.40625
L 21 12.40625
L 21 0
L 10.6875 0
z
" id="DejaVuSans-46"/>
      </defs>
      <g transform="translate(421.72 311.383219)scale(0.1 -0.1)">
       <use xlink:href="#DejaVuSans-48"/>
       <use x="63.623047" xlink:href="#DejaVuSans-46"/>
       <use x="95.410156" xlink:href="#DejaVuSans-48"/>
      </g>
     </g>
    </g>
    <g id="ytick_7">
     <g id="line2d_15">
      <g>
       <use style="stroke:#000000;stroke-width:0.8;" x="414.72" xlink:href="#mad613f968f" y="269.887504"/>
      </g>
     </g>
     <g id="text_16">
      <!-- 0.2 -->
      <g transform="translate(421.72 273.686723)scale(0.1 -0.1)">
       <use xlink:href="#DejaVuSans-48"/>
       <use x="63.623047" xlink:href="#DejaVuSans-46"/>
       <use x="95.410156" xlink:href="#DejaVuSans-50"/>
      </g>
     </g>
    </g>
    <g id="ytick_8">
     <g id="line2d_16">
      <g>
       <use style="stroke:#000000;stroke-width:0.8;" x="414.72" xlink:href="#mad613f968f" y="232.191009"/>
      </g>
     </g>
     <g id="text_17">
      <!-- 0.4 -->
      <defs>
       <path d="M 37.796875 64.3125
L 12.890625 25.390625
L 37.796875 25.390625
z
M 35.203125 72.90625
L 47.609375 72.90625
L 47.609375 25.390625
L 58.015625 25.390625
L 58.015625 17.1875
L 47.609375 17.1875
L 47.609375 0
L 37.796875 0
L 37.796875 17.1875
L 4.890625 17.1875
L 4.890625 26.703125
z
" id="DejaVuSans-52"/>
      </defs>
      <g transform="translate(421.72 235.990227)scale(0.1 -0.1)">
       <use xlink:href="#DejaVuSans-48"/>
       <use x="63.623047" xlink:href="#DejaVuSans-46"/>
       <use x="95.410156" xlink:href="#DejaVuSans-52"/>
      </g>
     </g>
    </g>
    <g id="ytick_9">
     <g id="line2d_17">
      <g>
       <use style="stroke:#000000;stroke-width:0.8;" x="414.72" xlink:href="#mad613f968f" y="194.494513"/>
      </g>
     </g>
     <g id="text_18">
      <!-- 0.6 -->
      <defs>
       <path d="M 33.015625 40.375
Q 26.375 40.375 22.484375 35.828125
Q 18.609375 31.296875 18.609375 23.390625
Q 18.609375 15.53125 22.484375 10.953125
Q 26.375 6.390625 33.015625 6.390625
Q 39.65625 6.390625 43.53125 10.953125
Q 47.40625 15.53125 47.40625 23.390625
Q 47.40625 31.296875 43.53125 35.828125
Q 39.65625 40.375 33.015625 40.375
z
M 52.59375 71.296875
L 52.59375 62.3125
Q 48.875 64.0625 45.09375 64.984375
Q 41.3125 65.921875 37.59375 65.921875
Q 27.828125 65.921875 22.671875 59.328125
Q 17.53125 52.734375 16.796875 39.40625
Q 19.671875 43.65625 24.015625 45.921875
Q 28.375 48.1875 33.59375 48.1875
Q 44.578125 48.1875 50.953125 41.515625
Q 57.328125 34.859375 57.328125 23.390625
Q 57.328125 12.15625 50.6875 5.359375
Q 44.046875 -1.421875 33.015625 -1.421875
Q 20.359375 -1.421875 13.671875 8.265625
Q 6.984375 17.96875 6.984375 36.375
Q 6.984375 53.65625 15.1875 63.9375
Q 23.390625 74.21875 37.203125 74.21875
Q 40.921875 74.21875 44.703125 73.484375
Q 48.484375 72.75 52.59375 71.296875
z
" id="DejaVuSans-54"/>
      </defs>
      <g transform="translate(421.72 198.293732)scale(0.1 -0.1)">
       <use xlink:href="#DejaVuSans-48"/>
       <use x="63.623047" xlink:href="#DejaVuSans-46"/>
       <use x="95.410156" xlink:href="#DejaVuSans-54"/>
      </g>
     </g>
    </g>
    <g id="ytick_10">
     <g id="line2d_18">
      <g>
       <use style="stroke:#000000;stroke-width:0.8;" x="414.72" xlink:href="#mad613f968f" y="156.798017"/>
      </g>
     </g>
     <g id="text_19">
      <!-- 0.8 -->
      <defs>
       <path d="M 31.78125 34.625
Q 24.75 34.625 20.71875 30.859375
Q 16.703125 27.09375 16.703125 20.515625
Q 16.703125 13.921875 20.71875 10.15625
Q 24.75 6.390625 31.78125 6.390625
Q 38.8125 6.390625 42.859375 10.171875
Q 46.921875 13.96875 46.921875 20.515625
Q 46.921875 27.09375 42.890625 30.859375
Q 38.875 34.625 31.78125 34.625
z
M 21.921875 38.8125
Q 15.578125 40.375 12.03125 44.71875
Q 8.5 49.078125 8.5 55.328125
Q 8.5 64.0625 14.71875 69.140625
Q 20.953125 74.21875 31.78125 74.21875
Q 42.671875 74.21875 48.875 69.140625
Q 55.078125 64.0625 55.078125 55.328125
Q 55.078125 49.078125 51.53125 44.71875
Q 48 40.375 41.703125 38.8125
Q 48.828125 37.15625 52.796875 32.3125
Q 56.78125 27.484375 56.78125 20.515625
Q 56.78125 9.90625 50.3125 4.234375
Q 43.84375 -1.421875 31.78125 -1.421875
Q 19.734375 -1.421875 13.25 4.234375
Q 6.78125 9.90625 6.78125 20.515625
Q 6.78125 27.484375 10.78125 32.3125
Q 14.796875 37.15625 21.921875 38.8125
z
M 18.3125 54.390625
Q 18.3125 48.734375 21.84375 45.5625
Q 25.390625 42.390625 31.78125 42.390625
Q 38.140625 42.390625 41.71875 45.5625
Q 45.3125 48.734375 45.3125 54.390625
Q 45.3125 60.0625 41.71875 63.234375
Q 38.140625 66.40625 31.78125 66.40625
Q 25.390625 66.40625 21.84375 63.234375
Q 18.3125 60.0625 18.3125 54.390625
z
" id="DejaVuSans-56"/>
      </defs>
      <g transform="translate(421.72 160.597236)scale(0.1 -0.1)">
       <use xlink:href="#DejaVuSans-48"/>
       <use x="63.623047" xlink:href="#DejaVuSans-46"/>
       <use x="95.410156" xlink:href="#DejaVuSans-56"/>
      </g>
     </g>
    </g>
    <g id="ytick_11">
     <g id="line2d_19">
      <g>
       <use style="stroke:#000000;stroke-width:0.8;" x="414.72" xlink:href="#mad613f968f" y="119.101522"/>
      </g>
     </g>
     <g id="text_20">
      <!-- 1.0 -->
      <g transform="translate(421.72 122.90074)scale(0.1 -0.1)">
       <use xlink:href="#DejaVuSans-49"/>
       <use x="63.623047" xlink:href="#DejaVuSans-46"/>
       <use x="95.410156" xlink:href="#DejaVuSans-48"/>
      </g>
     </g>
    </g>
    <g id="ytick_12">
     <g id="line2d_20">
      <g>
       <use style="stroke:#000000;stroke-width:0.8;" x="414.72" xlink:href="#mad613f968f" y="81.405026"/>
      </g>
     </g>
     <g id="text_21">
      <!-- 1.2 -->
      <g transform="translate(421.72 85.204245)scale(0.1 -0.1)">
       <use xlink:href="#DejaVuSans-49"/>
       <use x="63.623047" xlink:href="#DejaVuSans-46"/>
       <use x="95.410156" xlink:href="#DejaVuSans-50"/>
      </g>
     </g>
    </g>
    <g id="ytick_13">
     <g id="line2d_21">
      <g>
       <use style="stroke:#000000;stroke-width:0.8;" x="414.72" xlink:href="#mad613f968f" y="43.70853"/>
      </g>
     </g>
     <g id="text_22">
      <!-- 1.4 -->
      <g transform="translate(421.72 47.507749)scale(0.1 -0.1)">
       <use xlink:href="#DejaVuSans-49"/>
       <use x="63.623047" xlink:href="#DejaVuSans-46"/>
       <use x="95.410156" xlink:href="#DejaVuSans-52"/>
      </g>
     </g>
    </g>
    <g id="text_23">
     <!-- $\dfrac{\mathrm{d}\sigma}{\mathrm{d}\Omega}$ / (C$^{4}$ s$^{3}$ J$^{-1}$ m$^{-2}$ kg$^{-1})$ -->
     <defs>
      <path d="M 45.40625 46.390625
L 45.40625 75.984375
L 54.390625 75.984375
L 54.390625 0
L 45.40625 0
L 45.40625 8.203125
Q 42.578125 3.328125 38.25 0.953125
Q 33.9375 -1.421875 27.875 -1.421875
Q 17.96875 -1.421875 11.734375 6.484375
Q 5.515625 14.40625 5.515625 27.296875
Q 5.515625 40.1875 11.734375 48.09375
Q 17.96875 56 27.875 56
Q 33.9375 56 38.25 53.625
Q 42.578125 51.265625 45.40625 46.390625
z
M 14.796875 27.296875
Q 14.796875 17.390625 18.875 11.75
Q 22.953125 6.109375 30.078125 6.109375
Q 37.203125 6.109375 41.296875 11.75
Q 45.40625 17.390625 45.40625 27.296875
Q 45.40625 37.203125 41.296875 42.84375
Q 37.203125 48.484375 30.078125 48.484375
Q 22.953125 48.484375 18.875 42.84375
Q 14.796875 37.203125 14.796875 27.296875
z
" id="DejaVuSans-100"/>
      <path d="M 34.671875 47.5625
Q 27.25 47.5625 22.21875 42.1875
Q 16.890625 36.578125 15.140625 27.296875
Q 13.1875 17.484375 16.3125 11.8125
Q 19.390625 6.203125 26.65625 6.203125
Q 33.84375 6.203125 39.109375 11.859375
Q 44.4375 17.53125 46.34375 27.296875
Q 48.046875 36.234375 45.015625 42.1875
Q 42.1875 47.5625 34.671875 47.5625
z
M 36.078125 54.734375
L 65.921875 54.6875
L 64.15625 45.703125
L 54.109375 45.703125
Q 57.90625 38.09375 55.859375 27.296875
Q 53.21875 13.875 45.0625 6.25
Q 36.859375 -1.421875 25.140625 -1.421875
Q 13.375 -1.421875 8.203125 6.25
Q 3.03125 13.875 5.671875 27.296875
Q 8.25 40.765625 16.40625 48.390625
Q 23.1875 54.734375 36.078125 54.734375
z
" id="DejaVuSans-Oblique-963"/>
      <path d="M 72.609375 8.6875
L 72.609375 0
L 43.3125 0
L 43.3125 8.6875
Q 51.953125 13.421875 56.78125 21.53125
Q 61.625 29.640625 61.625 39.5
Q 61.625 51.21875 55.171875 58.296875
Q 48.734375 65.375 38.1875 65.375
Q 27.640625 65.375 21.171875 58.265625
Q 14.703125 51.171875 14.703125 39.5
Q 14.703125 29.640625 19.53125 21.53125
Q 24.421875 13.421875 33.109375 8.6875
L 33.109375 0
L 3.8125 0
L 3.8125 8.6875
L 19.390625 8.6875
Q 11.671875 15.484375 8.109375 22.75
Q 4.59375 30.03125 4.59375 39.015625
Q 4.59375 54.546875 13.96875 64.15625
Q 23.296875 73.78125 38.1875 73.78125
Q 52.984375 73.78125 62.40625 64.15625
Q 71.78125 54.59375 71.78125 39.5
Q 71.78125 30.03125 68.3125 22.796875
Q 64.84375 15.578125 56.984375 8.6875
z
" id="DejaVuSans-937"/>
      <path d="M 64.40625 67.28125
L 64.40625 56.890625
Q 59.421875 61.53125 53.78125 63.8125
Q 48.140625 66.109375 41.796875 66.109375
Q 29.296875 66.109375 22.65625 58.46875
Q 16.015625 50.828125 16.015625 36.375
Q 16.015625 21.96875 22.65625 14.328125
Q 29.296875 6.6875 41.796875 6.6875
Q 48.140625 6.6875 53.78125 8.984375
Q 59.421875 11.28125 64.40625 15.921875
L 64.40625 5.609375
Q 59.234375 2.09375 53.4375 0.328125
Q 47.65625 -1.421875 41.21875 -1.421875
Q 24.65625 -1.421875 15.125 8.703125
Q 5.609375 18.84375 5.609375 36.375
Q 5.609375 53.953125 15.125 64.078125
Q 24.65625 74.21875 41.21875 74.21875
Q 47.75 74.21875 53.53125 72.484375
Q 59.328125 70.75 64.40625 67.28125
z
" id="DejaVuSans-67"/>
      <path d="M 44.28125 53.078125
L 44.28125 44.578125
Q 40.484375 46.53125 36.375 47.5
Q 32.28125 48.484375 27.875 48.484375
Q 21.1875 48.484375 17.84375 46.4375
Q 14.5 44.390625 14.5 40.28125
Q 14.5 37.15625 16.890625 35.375
Q 19.28125 33.59375 26.515625 31.984375
L 29.59375 31.296875
Q 39.15625 29.25 43.1875 25.515625
Q 47.21875 21.78125 47.21875 15.09375
Q 47.21875 7.46875 41.1875 3.015625
Q 35.15625 -1.421875 24.609375 -1.421875
Q 20.21875 -1.421875 15.453125 -0.5625
Q 10.6875 0.296875 5.421875 2
L 5.421875 11.28125
Q 10.40625 8.6875 15.234375 7.390625
Q 20.0625 6.109375 24.8125 6.109375
Q 31.15625 6.109375 34.5625 8.28125
Q 37.984375 10.453125 37.984375 14.40625
Q 37.984375 18.0625 35.515625 20.015625
Q 33.0625 21.96875 24.703125 23.78125
L 21.578125 24.515625
Q 13.234375 26.265625 9.515625 29.90625
Q 5.8125 33.546875 5.8125 39.890625
Q 5.8125 47.609375 11.28125 51.796875
Q 16.75 56 26.8125 56
Q 31.78125 56 36.171875 55.265625
Q 40.578125 54.546875 44.28125 53.078125
z
" id="DejaVuSans-115"/>
      <path d="M 9.8125 72.90625
L 19.671875 72.90625
L 19.671875 5.078125
Q 19.671875 -8.109375 14.671875 -14.0625
Q 9.671875 -20.015625 -1.421875 -20.015625
L -5.171875 -20.015625
L -5.171875 -11.71875
L -2.09375 -11.71875
Q 4.4375 -11.71875 7.125 -8.046875
Q 9.8125 -4.390625 9.8125 5.078125
z
" id="DejaVuSans-74"/>
      <path d="M 9.078125 75.984375
L 18.109375 75.984375
L 18.109375 31.109375
L 44.921875 54.6875
L 56.390625 54.6875
L 27.390625 29.109375
L 57.625 0
L 45.90625 0
L 18.109375 26.703125
L 18.109375 0
L 9.078125 0
z
" id="DejaVuSans-107"/>
      <path d="M 45.40625 27.984375
Q 45.40625 37.75 41.375 43.109375
Q 37.359375 48.484375 30.078125 48.484375
Q 22.859375 48.484375 18.828125 43.109375
Q 14.796875 37.75 14.796875 27.984375
Q 14.796875 18.265625 18.828125 12.890625
Q 22.859375 7.515625 30.078125 7.515625
Q 37.359375 7.515625 41.375 12.890625
Q 45.40625 18.265625 45.40625 27.984375
z
M 54.390625 6.78125
Q 54.390625 -7.171875 48.1875 -13.984375
Q 42 -20.796875 29.203125 -20.796875
Q 24.46875 -20.796875 20.265625 -20.09375
Q 16.0625 -19.390625 12.109375 -17.921875
L 12.109375 -9.1875
Q 16.0625 -11.328125 19.921875 -12.34375
Q 23.78125 -13.375 27.78125 -13.375
Q 36.625 -13.375 41.015625 -8.765625
Q 45.40625 -4.15625 45.40625 5.171875
L 45.40625 9.625
Q 42.625 4.78125 38.28125 2.390625
Q 33.9375 0 27.875 0
Q 17.828125 0 11.671875 7.65625
Q 5.515625 15.328125 5.515625 27.984375
Q 5.515625 40.671875 11.671875 48.328125
Q 17.828125 56 27.875 56
Q 33.9375 56 38.28125 53.609375
Q 42.625 51.21875 45.40625 46.390625
L 45.40625 54.6875
L 54.390625 54.6875
z
" id="DejaVuSans-103"/>
     </defs>
     <g transform="translate(453.823125 236.678)rotate(-90)scale(0.1 -0.1)">
      <use transform="translate(7 46.015625)" xlink:href="#DejaVuSans-100"/>
      <use transform="translate(70.476562 46.015625)" xlink:href="#DejaVuSans-Oblique-963"/>
      <use transform="translate(0 -62.640625)" xlink:href="#DejaVuSans-100"/>
      <use transform="translate(63.476562 -62.640625)" xlink:href="#DejaVuSans-937"/>
      <use transform="translate(152.392578 0.796875)" xlink:href="#DejaVuSans-32"/>
      <use transform="translate(184.179688 0.796875)" xlink:href="#DejaVuSans-47"/>
      <use transform="translate(217.871094 0.796875)" xlink:href="#DejaVuSans-32"/>
      <use transform="translate(249.658203 0.796875)" xlink:href="#DejaVuSans-40"/>
      <use transform="translate(288.671875 0.796875)" xlink:href="#DejaVuSans-67"/>
      <use transform="translate(359.453125 39.078125)scale(0.7)" xlink:href="#DejaVuSans-52"/>
      <use transform="translate(406.723633 0.796875)" xlink:href="#DejaVuSans-32"/>
      <use transform="translate(438.510742 0.796875)" xlink:href="#DejaVuSans-115"/>
      <use transform="translate(491.567383 39.078125)scale(0.7)" xlink:href="#DejaVuSans-51"/>
      <use transform="translate(538.837891 0.796875)" xlink:href="#DejaVuSans-32"/>
      <use transform="translate(570.625 0.796875)" xlink:href="#DejaVuSans-74"/>
      <use transform="translate(601.074219 39.078125)scale(0.7)" xlink:href="#DejaVuSans-8722"/>
      <use transform="translate(659.726562 39.078125)scale(0.7)" xlink:href="#DejaVuSans-49"/>
      <use transform="translate(706.99707 0.796875)" xlink:href="#DejaVuSans-32"/>
      <use transform="translate(738.78418 0.796875)" xlink:href="#DejaVuSans-109"/>
      <use transform="translate(837.15332 39.078125)scale(0.7)" xlink:href="#DejaVuSans-8722"/>
      <use transform="translate(895.805664 39.078125)scale(0.7)" xlink:href="#DejaVuSans-50"/>
      <use transform="translate(943.076172 0.796875)" xlink:href="#DejaVuSans-32"/>
      <use transform="translate(974.863281 0.796875)" xlink:href="#DejaVuSans-107"/>
      <use transform="translate(1032.773438 0.796875)" xlink:href="#DejaVuSans-103"/>
      <use transform="translate(1097.207031 39.078125)scale(0.7)" xlink:href="#DejaVuSans-8722"/>
      <use transform="translate(1155.859375 39.078125)scale(0.7)" xlink:href="#DejaVuSans-49"/>
      <use transform="translate(1203.129883 0.796875)" xlink:href="#DejaVuSans-41"/>
      <path d="M 0 19.59375
L 0 25.84375
L 139.892578 25.84375
L 139.892578 19.59375
L 0 19.59375
z
"/>
     </g>
    </g>
    <g id="text_24">
     <!-- 1e−37 -->
     <defs>
      <path d="M 56.203125 29.59375
L 56.203125 25.203125
L 14.890625 25.203125
Q 15.484375 15.921875 20.484375 11.0625
Q 25.484375 6.203125 34.421875 6.203125
Q 39.59375 6.203125 44.453125 7.46875
Q 49.3125 8.734375 54.109375 11.28125
L 54.109375 2.78125
Q 49.265625 0.734375 44.1875 -0.34375
Q 39.109375 -1.421875 33.890625 -1.421875
Q 20.796875 -1.421875 13.15625 6.1875
Q 5.515625 13.8125 5.515625 26.8125
Q 5.515625 40.234375 12.765625 48.109375
Q 20.015625 56 32.328125 56
Q 43.359375 56 49.78125 48.890625
Q 56.203125 41.796875 56.203125 29.59375
z
M 47.21875 32.234375
Q 47.125 39.59375 43.09375 43.984375
Q 39.0625 48.390625 32.421875 48.390625
Q 24.90625 48.390625 20.390625 44.140625
Q 15.875 39.890625 15.1875 32.171875
z
" id="DejaVuSans-101"/>
      <path d="M 8.203125 72.90625
L 55.078125 72.90625
L 55.078125 68.703125
L 28.609375 0
L 18.3125 0
L 43.21875 64.59375
L 8.203125 64.59375
z
" id="DejaVuSans-55"/>
     </defs>
     <g transform="translate(381.099688 38.472)scale(0.1 -0.1)">
      <use xlink:href="#DejaVuSans-49"/>
      <use x="63.623047" xlink:href="#DejaVuSans-101"/>
      <use x="125.146484" xlink:href="#DejaVuSans-8722"/>
      <use x="208.935547" xlink:href="#DejaVuSans-51"/>
      <use x="272.558594" xlink:href="#DejaVuSans-55"/>
     </g>
    </g>
   </g>
   <g id="line2d_22">
    <path clip-path="url(#pc9aa176515)" d="M 57.6 307.581652
L 141.210244 307.466748
L 146.395087 307.263208
L 148.549221 306.977603
L 149.770829 306.605508
L 150.572801 306.13788
L 151.169618 305.532473
L 151.654531 304.710324
L 152.064842 303.559104
L 152.437853 301.792625
L 152.764236 299.0988
L 153.062645 294.617667
L 153.323752 287.111016
L 153.556883 273.573943
L 153.771364 246.441886
L 153.967194 189.832327
L 154.265603 54.144
L 154.340205 70.159091
L 154.89972 266.079231
L 155.198128 286.576195
L 155.533837 295.78801
L 155.906848 300.410097
L 156.317159 302.946979
L 156.774097 304.464026
L 157.286986 305.425122
L 157.874477 306.066698
L 158.611172 306.535184
L 159.599649 306.886343
L 161.073039 307.154406
L 163.534907 307.350952
L 168.421341 307.482003
L 181.29952 307.548394
L 194.699912 307.452073
L 196.574289 307.249452
L 197.376261 306.958719
L 197.851849 306.554571
L 198.196883 305.952603
L 198.476641 304.979875
L 198.719098 303.254798
L 198.933578 299.959589
L 199.129409 293.160572
L 199.465118 272.82394
L 199.558371 276.522274
L 200.005983 300.309944
L 200.295066 304.053986
L 200.62145 305.663191
L 200.99446 306.454094
L 201.442072 306.894785
L 202.057539 307.175995
L 203.073992 307.368183
L 205.134874 307.491748
L 211.047086 307.557301
L 247.191778 307.580067
L 393.533019 307.482861
L 397.859937 307.287705
L 399.575784 307.008216
L 400.526961 306.641678
L 401.151753 306.171441
L 401.627341 305.531281
L 402.019001 304.613133
L 402.364036 303.185882
L 402.662444 300.943037
L 402.932877 297.075264
L 403.175333 290.017217
L 403.389814 276.462911
L 403.585644 248.406306
L 403.912028 168.915852
L 403.995956 180.89599
L 404.480869 280.736697
L 404.769952 294.314661
L 405.096336 300.279341
L 405.460021 303.209265
L 405.861007 304.790017
L 406.317944 305.73685
L 406.849484 306.338888
L 407.520902 306.756237
L 408.462753 307.062002
L 409.945469 307.286334
L 412.668444 307.442305
L 414.72 307.490834
L 414.72 307.490834
" style="fill:none;stroke:#ff0000;stroke-linecap:square;stroke-width:1.5;"/>
   </g>
   <g id="patch_7">
    <path d="M 57.6 307.584
L 57.6 41.472
" style="fill:none;stroke:#000000;stroke-linecap:square;stroke-linejoin:miter;stroke-width:0.8;"/>
   </g>
   <g id="patch_8">
    <path d="M 414.72 307.584
L 414.72 41.472
" style="fill:none;stroke:#000000;stroke-linecap:square;stroke-linejoin:miter;stroke-width:0.8;"/>
   </g>
   <g id="patch_9">
    <path d="M 57.6 307.584
L 414.72 307.584
" style="fill:none;stroke:#000000;stroke-linecap:square;stroke-linejoin:miter;stroke-width:0.8;"/>
   </g>
   <g id="patch_10">
    <path d="M 57.6 41.472
L 414.72 41.472
" style="fill:none;stroke:#000000;stroke-linecap:square;stroke-linejoin:miter;stroke-width:0.8;"/>
   </g>
  </g>
  <g id="legend_1">
   <g id="patch_11">
    <path d="M 196.871094 188.978125
L 263.928906 188.978125
Q 265.928906 188.978125 265.928906 186.978125
L 265.928906 158.621875
Q 265.928906 156.621875 263.928906 156.621875
L 196.871094 156.621875
Q 194.871094 156.621875 194.871094 158.621875
L 194.871094 186.978125
Q 194.871094 188.978125 196.871094 188.978125
z
" style="fill:#ffffff;opacity:0.8;stroke:#cccccc;stroke-linejoin:miter;"/>
   </g>
   <g id="line2d_23">
    <path d="M 198.871094 164.720312
L 218.871094 164.720312
" style="fill:none;stroke:#0000ff;stroke-linecap:square;stroke-width:1.5;"/>
   </g>
   <g id="line2d_24"/>
   <g id="text_25">
    <!-- IR -->
    <defs>
     <path d="M 9.8125 72.90625
L 19.671875 72.90625
L 19.671875 0
L 9.8125 0
z
" id="DejaVuSans-73"/>
     <path d="M 44.390625 34.1875
Q 47.5625 33.109375 50.5625 29.59375
Q 53.5625 26.078125 56.59375 19.921875
L 66.609375 0
L 56 0
L 46.6875 18.703125
Q 43.0625 26.03125 39.671875 28.421875
Q 36.28125 30.8125 30.421875 30.8125
L 19.671875 30.8125
L 19.671875 0
L 9.8125 0
L 9.8125 72.90625
L 32.078125 72.90625
Q 44.578125 72.90625 50.734375 67.671875
Q 56.890625 62.453125 56.890625 51.90625
Q 56.890625 45.015625 53.6875 40.46875
Q 50.484375 35.9375 44.390625 34.1875
z
M 19.671875 64.796875
L 19.671875 38.921875
L 32.078125 38.921875
Q 39.203125 38.921875 42.84375 42.21875
Q 46.484375 45.515625 46.484375 51.90625
Q 46.484375 58.296875 42.84375 61.546875
Q 39.203125 64.796875 32.078125 64.796875
z
" id="DejaVuSans-82"/>
    </defs>
    <g transform="translate(226.871094 168.220312)scale(0.1 -0.1)">
     <use xlink:href="#DejaVuSans-73"/>
     <use x="29.492188" xlink:href="#DejaVuSans-82"/>
    </g>
   </g>
   <g id="line2d_25">
    <path d="M 198.871094 179.398437
L 218.871094 179.398437
" style="fill:none;stroke:#ff0000;stroke-linecap:square;stroke-width:1.5;"/>
   </g>
   <g id="line2d_26"/>
   <g id="text_26">
    <!-- Raman -->
    <defs>
     <path d="M 34.28125 27.484375
Q 23.390625 27.484375 19.1875 25
Q 14.984375 22.515625 14.984375 16.5
Q 14.984375 11.71875 18.140625 8.90625
Q 21.296875 6.109375 26.703125 6.109375
Q 34.1875 6.109375 38.703125 11.40625
Q 43.21875 16.703125 43.21875 25.484375
L 43.21875 27.484375
z
M 52.203125 31.203125
L 52.203125 0
L 43.21875 0
L 43.21875 8.296875
Q 40.140625 3.328125 35.546875 0.953125
Q 30.953125 -1.421875 24.3125 -1.421875
Q 15.921875 -1.421875 10.953125 3.296875
Q 6 8.015625 6 15.921875
Q 6 25.140625 12.171875 29.828125
Q 18.359375 34.515625 30.609375 34.515625
L 43.21875 34.515625
L 43.21875 35.40625
Q 43.21875 41.609375 39.140625 45
Q 35.0625 48.390625 27.6875 48.390625
Q 23 48.390625 18.546875 47.265625
Q 14.109375 46.140625 10.015625 43.890625
L 10.015625 52.203125
Q 14.9375 54.109375 19.578125 55.046875
Q 24.21875 56 28.609375 56
Q 40.484375 56 46.34375 49.84375
Q 52.203125 43.703125 52.203125 31.203125
z
" id="DejaVuSans-97"/>
     <path d="M 54.890625 33.015625
L 54.890625 0
L 45.90625 0
L 45.90625 32.71875
Q 45.90625 40.484375 42.875 44.328125
Q 39.84375 48.1875 33.796875 48.1875
Q 26.515625 48.1875 22.3125 43.546875
Q 18.109375 38.921875 18.109375 30.90625
L 18.109375 0
L 9.078125 0
L 9.078125 54.6875
L 18.109375 54.6875
L 18.109375 46.1875
Q 21.34375 51.125 25.703125 53.5625
Q 30.078125 56 35.796875 56
Q 45.21875 56 50.046875 50.171875
Q 54.890625 44.34375 54.890625 33.015625
z
" id="DejaVuSans-110"/>
    </defs>
    <g transform="translate(226.871094 182.898437)scale(0.1 -0.1)">
     <use xlink:href="#DejaVuSans-82"/>
     <use x="67.232422" xlink:href="#DejaVuSans-97"/>
     <use x="128.511719" xlink:href="#DejaVuSans-109"/>
     <use x="225.923828" xlink:href="#DejaVuSans-97"/>
     <use x="287.203125" xlink:href="#DejaVuSans-110"/>
    </g>
   </g>
  </g>
 </g>
 <defs>
  <clipPath id="pc9aa176515">
   <rect height="266.112" width="357.12" x="57.6" y="41.472"/>
  </clipPath>
 </defs>
</svg>
