12

C	0.767211	0.767211	0.1225
C	-0.767211	-0.767211	0.1225
C	0.767211	-0.767211	-0.1225
C	-0.767211	0.767211	-0.1225
H	1.008443	1.008443	1.161
H	-1.008443	-1.008443	1.161
H	1.008443	-1.008443	-1.161
H	-1.008443	1.008443	-1.161
H	1.38645	1.38645	-0.529675
H	-1.38645	-1.38645	-0.529675
H	1.38645	-1.38645	0.529675
H	-1.38645	1.38645	0.529675
