16

C	1.8491	0	0
C	1.307511	-1.307511	0
C	0	-1.8491	0
C	-1.307511	-1.307511	0
C	-1.8491	0	0
C	-1.307511	1.307511	0
C	0	1.8491	0
C	1.307511	1.307511	0
H	2.9495	0	0
H	2.085611	-2.085611	0
H	0	-2.9495	0
H	-2.085611	-2.085611	0
H	-2.9495	0	0
H	-2.085611	2.085611	0
H	0	2.9495	0
H	2.085611	2.085611	0
