
   Content of the .dal input file
 ----------------------------------

**DALTON INPUT
.DIRECT
.RUN RESPONSE
**RESPONSE
*QUADRATIC
.TWO-PHOTON
.ROOTS
5
**WAVE FUNCTIONS
.HF
**END OF DALTON INPUT


   Content of the .mol file
 ----------------------------

ATOMBASIS
Generated by Dalton Project

AtomTypes=1 Charge=0 NoSymmetry Angstrom
Charge=2.0 Atoms=1 Basis=cc-pVTZ
He     0.000000     0.000000     0.000000


 *** RSPCTL MICROITERATIONS CONVERGED

@ QRPPVE: SINGLET EXCITATION VECTOR    1    SYMMETRY    1  ( A  )
@ Singlet excitation energy  1.198121D+00

@ QRPPVE: SINGLET EXCITATION VECTOR    2    SYMMETRY    1  ( A  )
@ Singlet excitation energy  1.884962D+00

@ QRPPVE: SINGLET EXCITATION VECTOR    3    SYMMETRY    1  ( A  )
@ Singlet excitation energy  1.884962D+00

@ QRPPVE: SINGLET EXCITATION VECTOR    4    SYMMETRY    1  ( A  )
@ Singlet excitation energy  1.884962D+00

@ QRPPVE: SINGLET EXCITATION VECTOR    5    SYMMETRY    1  ( A  )
@ Singlet excitation energy  4.866744D+00


 Linear response calculations for quadratic response


   ---------------------------------------------------------------------------------
   Sym  No  Energy  Polarization         Df         Dg          D      sigma       R
   ---------------------------------------------------------------------------------
     1   1   32.60   Linear       0.321E-01  0.107E-01  0.107E+00  0.833E-01    0.00
     1   1   32.60   Circular     0.321E-01  0.107E-01  0.000E+00  0.000E+00    0.00
     1   2   51.29   Linear       0.000E+00  0.000E+00  0.000E+00  0.000E+00     NaN
     1   2   51.29   Circular     0.000E+00  0.000E+00  0.000E+00  0.000E+00     NaN
     1   3   51.29   Linear       0.000E+00  0.000E+00  0.000E+00  0.000E+00     NaN
     1   3   51.29   Circular     0.000E+00  0.000E+00  0.000E+00  0.000E+00     NaN
     1   4   51.29   Linear       0.000E+00  0.000E+00  0.000E+00  0.000E+00     NaN
     1   4   51.29   Circular     0.000E+00  0.000E+00  0.000E+00  0.000E+00     NaN
     1   5  132.43   Linear       0.349E+00  0.116E+00  0.116E+01  0.149E+02    0.00
     1   5  132.43   Circular     0.349E+00  0.116E+00  0.111E-15  0.143E-14    0.00
   ---------------------------------------------------------------------------------
